Bees!
…
Pennsylvania and Virginia Are states with higher bee loss

Pennsylviania is ranked #16 in highest total annual bee loss

Virginia is ranked #19

## # A tibble: 51 x 8
##    year  season state totAnnualLoss beekeepers beekeepersExclu colonies
##    <chr> <chr>  <chr>         <dbl>      <dbl>            <dbl>    <dbl>
##  1 2016 Annual Okla         0.839         29            0.965     9513
##  2 2016 Annual Dela         0.74          38            0.868      462
##  3 2016 Annual Nebr         0.721         15            0.933      355
##  4 2016 Annual Iowa          0.686         71            0.986     1074
##  5 2016 Annual Ariz         0.65          10            0.8        528
##  6 2016 Annual Conn         0.618         34            1          427
##  7 2016 Annual New          0.604         49            0.939      757
##  8 2016 Annual Illi         0.59          94            0.979      906
##  9 2016 Annual Mary         0.55         127            0.905     5582
## 10 2016 Annual Sout         0.538         53            0.943     6246
## #  with 41 more rows, and 1 more variable: coloniesExclusive <dbl>
…
