…
```r
bee
```

```
## # A tibble: 365 x 8
##    Year  Season State `Total Annual L… Beekeepers `Beekeepers Exc… Colonies
##    <chr> <chr>  <chr>            <dbl>      <dbl>            <dbl>    <dbl>
##  1 2016… Annual Mass…            0.159         87            0.943    27186
##  2 2016… Annual Mont…            0.171         21            0.524    35905
##  3 2016… Annual Neva…            0.23          13            0.923     2512
##  4 2016… Annual Maine            0.233         65            0.938    41102
##  5 2016… Annual Wyom…            0.234         18            0.778     6521
##  6 2016… Annual Hawa…            0.262         10            1           84
##  7 2016… Annual Miss…            0.263          9            0.222    17802
##  8 2016… Annual West…            0.266         52            0.942      993
##  9 2016… Annual Idaho            0.273         30            0.833    76794
## 10 2016… Annual Flor…            0.292         62            0.823    95872
## # … with 355 more rows, and 1 more variable: `Colonies Exclusive to
## #   State` <dbl>
```
…
```r
bee %>% 
  filter(year=="2016/17") %>% 
  arrange(desc(beekeepers))
```

```
## # A tibble: 51 x 8
##    year  season state totAnnualLoss beekeepers beekeepersExclu… colonies
##    <chr> <chr>  <chr>         <dbl>      <dbl>            <dbl>    <dbl>
##  1 2016… Annual Penn…         0.516        581            0.976    15517
##  2 2016… Annual Virg…         0.441        371            0.97      3263
##  3 2016… Annual Ohio          0.39         233            0.978     2717
##  4 2016… Annual Nort…         0.299        206            0.956     7246
##  5 2016… Annual Utah          0.532        167            0.97      3302
##  6 2016… Annual Cali…         0.305        163            0.632   383369
##  7 2016… Annual New …         0.438        143            0.923    29782
##  8 2016… Annual Mich…         0.326        138            0.964    14949
##  9 2016… Annual Oreg…         0.324        137            0.934    35433
## 10 2016… Annual Texas         0.349        136            0.927    60699
## # … with 41 more rows, and 1 more variable: coloniesExclusive <dbl>
```
…
```r
bee %>% 
  filter(year=="2016/17") %>% 
  arrange(desc(colonies))
```

```
## # A tibble: 51 x 8
##    year  season state totAnnualLoss beekeepers beekeepersExclu… colonies
##    <chr> <chr>  <chr>         <dbl>      <dbl>            <dbl>    <dbl>
##  1 2016… Annual Cali…         0.305        163            0.632   383369
##  2 2016… Annual Mult…         0.318        126            0       345567
##  3 2016… Annual Nort…         0.378         17            0.118   163861
##  4 2016… Annual Flor…         0.292         62            0.823    95872
##  5 2016… Annual Wash…         0.397         89            0.899    85387
##  6 2016… Annual Idaho         0.273         30            0.833    76794
##  7 2016… Annual Texas         0.349        136            0.927    60699
##  8 2016… Annual Maine         0.233         65            0.938    41102
##  9 2016… Annual Geor…         0.305         81            0.877    38443
## 10 2016… Annual Mont…         0.171         21            0.524    35905
## # … with 41 more rows, and 1 more variable: coloniesExclusive <dbl>
```


```r
bee %>% 
  filter(year=="2016/17") %>% 
  arrange(desc(totAnnualLoss))
```

```
## # A tibble: 51 x 8
##    year  season state totAnnualLoss beekeepers beekeepersExclu… colonies
##    <chr> <chr>  <chr>         <dbl>      <dbl>            <dbl>    <dbl>
##  1 2016… Annual Okla…         0.839         29            0.965     9513
##  2 2016… Annual Dela…         0.74          38            0.868      462
##  3 2016… Annual Nebr…         0.721         15            0.933      355
##  4 2016… Annual Iowa          0.686         71            0.986     1074
##  5 2016… Annual Ariz…         0.65          10            0.8        528
##  6 2016… Annual Conn…         0.618         34            1          427
##  7 2016… Annual New …         0.604         49            0.939      757
##  8 2016… Annual Illi…         0.59          94            0.979      906
##  9 2016… Annual Mary…         0.55         127            0.905     5582
## 10 2016… Annual Sout…         0.538         53            0.943     6246
## # … with 41 more rows, and 1 more variable: coloniesExclusive <dbl>
```

```r
bee %>% 
  filter(year=="2016/17") %>% 
  arrange(totAnnualLoss)
```

```
## # A tibble: 51 x 8
##    year  season state totAnnualLoss beekeepers beekeepersExclu… colonies
##    <chr> <chr>  <chr>         <dbl>      <dbl>            <dbl>    <dbl>
##  1 2016… Annual Mass…         0.159         87            0.943    27186
##  2 2016… Annual Mont…         0.171         21            0.524    35905
##  3 2016… Annual Neva…         0.23          13            0.923     2512
##  4 2016… Annual Maine         0.233         65            0.938    41102
##  5 2016… Annual Wyom…         0.234         18            0.778     6521
##  6 2016… Annual Hawa…         0.262         10            1           84
##  7 2016… Annual Miss…         0.263          9            0.222    17802
##  8 2016… Annual West…         0.266         52            0.942      993
##  9 2016… Annual Idaho         0.273         30            0.833    76794
## 10 2016… Annual Flor…         0.292         62            0.823    95872
## # … with 41 more rows, and 1 more variable: coloniesExclusive <dbl>
```


```r
bee %>% 
  filter(year=="2016/17") %>% 
  arrange(desc(beekeepers))
```

```
## # A tibble: 51 x 8
##    year  season state totAnnualLoss beekeepers beekeepersExclu… colonies
##    <chr> <chr>  <chr>         <dbl>      <dbl>            <dbl>    <dbl>
##  1 2016… Annual Penn…         0.516        581            0.976    15517
##  2 2016… Annual Virg…         0.441        371            0.97      3263
##  3 2016… Annual Ohio          0.39         233            0.978     2717
##  4 2016… Annual Nort…         0.299        206            0.956     7246
##  5 2016… Annual Utah          0.532        167            0.97      3302
##  6 2016… Annual Cali…         0.305        163            0.632   383369
##  7 2016… Annual New …         0.438        143            0.923    29782
##  8 2016… Annual Mich…         0.326        138            0.964    14949
##  9 2016… Annual Oreg…         0.324        137            0.934    35433
## 10 2016… Annual Texas         0.349        136            0.927    60699
## # … with 41 more rows, and 1 more variable: coloniesExclusive <dbl>
```


```r
bee %>% 
  filter(year=="2016/17") %>% 
  arrange(desc(beekeepersExclusive))
```

```
## # A tibble: 51 x 8
##    year  season state totAnnualLoss beekeepers beekeepersExclu… colonies
##    <chr> <chr>  <chr>         <dbl>      <dbl>            <dbl>    <dbl>
##  1 2016… Annual Hawa…         0.262         10            1           84
##  2 2016… Annual Indi…         0.414         99            1          952
##  3 2016… Annual Tenn…         0.49          57            1         1199
##  4 2016… Annual Conn…         0.618         34            1          427
##  5 2016… Annual Iowa          0.686         71            0.986     1074
##  6 2016… Annual Illi…         0.59          94            0.979      906
##  7 2016… Annual Ohio          0.39         233            0.978     2717
##  8 2016… Annual Penn…         0.516        581            0.976    15517
##  9 2016… Annual Alab…         0.349         38            0.974      573
## 10 2016… Annual Virg…         0.441        371            0.97      3263
## # … with 41 more rows, and 1 more variable: coloniesExclusive <dbl>
```
#seeing Which States have the highest number of colonies per beekeeper

```r
bee %>%
  mutate(coloniesPerKeeper = colonies/beekeepers) %>% 
  filter(year=="2016/17") %>% 
  arrange(desc(coloniesPerKeeper))
```

```
## # A tibble: 51 x 9
##    year  season state totAnnualLoss beekeepers beekeepersExclu… colonies
##    <chr> <chr>  <chr>         <dbl>      <dbl>            <dbl>    <dbl>
##  1 2016… Annual Nort…         0.378         17            0.118   163861
##  2 2016… Annual Mult…         0.318        126            0       345567
##  3 2016… Annual Idaho         0.273         30            0.833    76794
##  4 2016… Annual Sout…         0.322         12            0.5      29626
##  5 2016… Annual Cali…         0.305        163            0.632   383369
##  6 2016… Annual Miss…         0.263          9            0.222    17802
##  7 2016… Annual Mont…         0.171         21            0.524    35905
##  8 2016… Annual Flor…         0.292         62            0.823    95872
##  9 2016… Annual Kans…         0.477         16            0.938    23181
## 10 2016… Annual Wash…         0.397         89            0.899    85387
## # … with 41 more rows, and 2 more variables: coloniesExclusive <dbl>,
## #   coloniesPerKeeper <dbl>
```
…
