…
##Is it true bee colonies are losing?

```
## # A tibble: 53 x 3
##    year    state         totAnnualLoss
##    <chr>   <chr>                 <dbl>
##  1 2010/11 Maine                 0.869
##  2 2010/11 Georgia               0.847
##  3 2010/11 Michigan              0.835
##  4 2010/11 Iowa                  0.807
##  5 2010/11 West Virginia         0.786
##  6 2010/11 Pennsylvania          0.728
##  7 2010/11 New York              0.681
##  8 2010/11 Louisiana             0.636
##  9 2010/11 Massachusetts         0.607
## 10 2010/11 Illinois              0.583
## # … with 43 more rows
```
…
##In the most recent year 2016-2017

```
## # A tibble: 51 x 3
##    year    state          totAnnualLoss
##    <chr>   <chr>                  <dbl>
##  1 2016/17 Oklahoma               0.839
##  2 2016/17 Delaware               0.74 
##  3 2016/17 Nebraska               0.721
##  4 2016/17 Iowa                   0.686
##  5 2016/17 Arizona                0.65 
##  6 2016/17 Connecticut            0.618
##  7 2016/17 New Hampshire          0.604
##  8 2016/17 Illinois               0.59 
##  9 2016/17 Maryland               0.55 
## 10 2016/17 South Carolina         0.538
## # … with 41 more rows
```
…
